…
    ## The following object is masked from 'package:boot':
    ## 
    ##     logit

``` r
# importing our data
# reading our data

library(readxl)
df <- read_excel("D:/submissions.xlsx")
df
```

    ## # A tibble: 167 x 112
    ##    `REPUTATION-Int~ `REPUTATION-sec~ `REPUTATION-Q1` `REPUTATION-sec~
    ##    <lgl>            <lgl>                      <dbl> <lgl>           
    ##  1 NA               NA                             2 NA              
    ##  2 NA               NA                             2 NA              
    ##  3 NA               NA                             1 NA              
    ##  4 NA               NA                             1 NA              
    ##  5 NA               NA                             1 NA              
    ##  6 NA               NA                             1 NA              
    ##  7 NA               NA                             1 NA              
    ##  8 NA               NA                             2 NA              
    ##  9 NA               NA                             2 NA              
    ## 10 NA               NA                             1 NA              
    ## # ... with 157 more rows, and 108 more variables: `REPUTATION-Q2` <dbl>,
    ## #   `REPUTATION-Q3` <lgl>, `REPUTATION-Q4` <dbl>, `REPUTATION-Q5` <chr>,
    ## #   `REPUTATION-sectionc` <lgl>, `REPUTATION-Q6` <dbl>, `REPUTATION-Q7` <dbl>,
    ## #   `REPUTATION-Q8` <dbl>, `REPUTATION-Q9` <chr>,
    ## #   `REPUTATION-untitled15` <lgl>, `REPUTATION-untitled16` <lgl>,
    ## #   `REPUTATION-untitled17` <lgl>, `REPUTATION-Q10` <dbl>,
    ## #   `REPUTATION-Q11` <chr>, `REPUTATION-untitled19` <lgl>,
    ## #   `REPUTATION-FMCGOFF1` <dbl>, `REPUTATION-FMCGOFF2` <dbl>,
    ## #   `REPUTATION-FMCGOFF3` <dbl>, `REPUTATION-FMCGINNO1` <dbl>,
…
``` r
# showing these unique items and assigning to a variable unique_items below
unique_items <- df1[!duplicated(df1), ]
unique_items
```

    ## # A tibble: 167 x 89
    ##    `REPUTATION-Q1` `REPUTATION-Q2` `REPUTATION-Q4` `REPUTATION-Q6`
    ##              <dbl>           <dbl>           <dbl>           <dbl>
    ##  1               2               1               2               2
    ##  2               2               2               6               1
    ##  3               1               1               7               2
    ##  4               1               2               7               1
    ##  5               1               2               6               2
    ##  6               1               2               7               2
    ##  7               1               1               1               2
    ##  8               2               2               5               2
    ##  9               2               2               1               1
    ## 10               1               1               7               1
    ## # ... with 157 more rows, and 85 more variables: `REPUTATION-Q7` <dbl>,
    ## #   `REPUTATION-Q8` <dbl>, `REPUTATION-Q9` <chr>, `REPUTATION-Q10` <dbl>,
    ## #   `REPUTATION-FMCGOFF1` <dbl>, `REPUTATION-FMCGOFF2` <dbl>,
    ## #   `REPUTATION-FMCGOFF3` <dbl>, `REPUTATION-FMCGINNO1` <dbl>,
    ## #   `REPUTATION-FMCGINNO2` <dbl>, `REPUTATION-FMCGCC1` <dbl>,
    ## #   `REPUTATION-FMCGCC2` <dbl>, `REPUTATION-FMCGRFS1` <dbl>,
    ## #   `REPUTATION-FMCGRFS2` <dbl>, `REPUTATION-FMCGSR1` <dbl>,
    ## #   `REPUTATION-FMCGSR2` <dbl>, `REPUTATION-FMCGSA1` <dbl>,
    ## #   `REPUTATION-FMCGTR1` <dbl>, `REPUTATION-FMCGOP1` <dbl>,
…
``` r
View(df1)
```

``` r
# selecting the numerical data columns
df2 <- df1 %>% select_if(is.numeric)
df2
```

    ## # A tibble: 167 x 85
    ##    `REPUTATION-Q1` `REPUTATION-Q2` `REPUTATION-Q4` `REPUTATION-Q6`
    ##              <dbl>           <dbl>           <dbl>           <dbl>
    ##  1               2               1               2               2
    ##  2               2               2               6               1
    ##  3               1               1               7               2
    ##  4               1               2               7               1
    ##  5               1               2               6               2
    ##  6               1               2               7               2
    ##  7               1               1               1               2
    ##  8               2               2               5               2
    ##  9               2               2               1               1
    ## 10               1               1               7               1
    ## # ... with 157 more rows, and 81 more variables: `REPUTATION-Q7` <dbl>,
    ## #   `REPUTATION-Q8` <dbl>, `REPUTATION-Q10` <dbl>, `REPUTATION-FMCGOFF1` <dbl>,
    ## #   `REPUTATION-FMCGOFF2` <dbl>, `REPUTATION-FMCGOFF3` <dbl>,
    ## #   `REPUTATION-FMCGINNO1` <dbl>, `REPUTATION-FMCGINNO2` <dbl>,
    ## #   `REPUTATION-FMCGCC1` <dbl>, `REPUTATION-FMCGCC2` <dbl>,
    ## #   `REPUTATION-FMCGRFS1` <dbl>, `REPUTATION-FMCGRFS2` <dbl>,
    ## #   `REPUTATION-FMCGSR1` <dbl>, `REPUTATION-FMCGSR2` <dbl>,
    ## #   `REPUTATION-FMCGSA1` <dbl>, `REPUTATION-FMCGTR1` <dbl>,
    ## #   `REPUTATION-FMCGOP1` <dbl>, `REPUTATION-FMCGLOY1` <dbl>,
…
